Chapter 21 Linear and Non-Linear Algorithms for Classification | A Machine Learning Compilation
…
tibble::as_tibble(BreastCancer)
#> # A tibble: 699 x 11
#>   Id    Cl.thickness Cell.size Cell.shape Marg.adhesion Epith.c.size Bare.nuclei
#>   <chr> <ord>        <ord>     <ord>      <ord>         <ord>        <fct>      
#> 1 1000… 5            1         1          1             2            1          
#> 2 1002… 5            4         4          5             7            10         
#> 3 1015… 3            1         1          1             2            2          
#> 4 1016… 6            8         8          1             3            4          
#> 5 1017… 4            1         1          3             2            1          
#> 6 1017… 8            10        10         8             7            10         
#> # … with 693 more rows, and 4 more variables: Bl.cromatin <fct>,
#> #   Normal.nucleoli <fct>, Mitoses <fct>, Class <fct>
…
