B Q-Q normal to compare data to distributions | A Machine Learning Compilation
…
We can, of course, make use of ggplot’s faceting function to generate trellised plots. For example, the following plot replicates Cleveland’s figure 2.11 (except for the layout which we’ll setup as a single row of plots instead). But first, we will need to compute the slopes for each singer group. We’ll use dplyr’s piping operations to create a new dataframe with singer group name, slope and intercept.

library(dplyr)

intsl <- df %>% 
    group_by(voice.part) %>% 
       summarize(q25    = quantile(height,0.25, type=5),
                 q75    = quantile(height,0.75, type=5),
                 norm25 = qnorm( 0.25),
                 norm75 = qnorm( 0.75),
                 slope  = (q25 - q75) / (norm25 - norm75),
                 int    = q25 - slope * norm25) %>%
       select(voice.part, slope, int) %>% 
    print
#> # A tibble: 8 x 3
#>   voice.part slope   int
#>   <fct>      <dbl> <dbl>
#> 1 Bass 2      2.97  72  
#> 2 Bass 1      2.22  70.5
#> 3 Tenor 2     1.48  70  
#> 4 Tenor 1     3.89  68.6
#> 5 Alto 2      2.22  65.5
#> 6 Alto 1      2.78  64.9
#> # … with 2 more rows
…
