Chapter 21 Who buys Social Network ads | A Machine Learning Book
…
21.3.2 Importing the dataset

# Importing the dataset 
dataset = read.csv(file.path(data_raw_dir, 'Social_Network_Ads.csv')) 
dplyr::glimpse(dataset)
#> Rows: 400
#> Columns: 5
#> $ User.ID         <int> 15624510, 15810944, 15668575, 15603246, 15804002, 157…
#> $ Gender          <fct> Male, Male, Female, Female, Male, Male, Female, Femal…
#> $ Age             <int> 19, 35, 26, 27, 19, 27, 27, 32, 25, 35, 26, 26, 20, 3…
#> $ EstimatedSalary <int> 19000, 20000, 43000, 57000, 76000, 58000, 84000, 1500…
#> $ Purchased       <int> 0, 0, 0, 0, 0, 0, 0, 1, 0, 0, 0, 0, 0, 0, 0, 0, 1, 1,…

tibble::as_tibble(dataset)
#> # A tibble: 400 x 5
#>    User.ID Gender   Age EstimatedSalary Purchased
#>      <int> <fct>  <int>           <int>     <int>
#> 1 15624510 Male      19           19000         0
#> 2 15810944 Male      35           20000         0
#> 3 15668575 Female    26           43000         0
#> 4 15603246 Female    27           57000         0
#> 5 15804002 Male      19           76000         0
#> 6 15728773 Male      27           58000         0
#> # … with 394 more rows

# Taking columns 3-5 
dataset = dataset[3:5]
tibble::as_tibble(dataset)
#> # A tibble: 400 x 3
#>     Age EstimatedSalary Purchased
#>   <int>           <int>     <int>
#> 1    19           19000         0
#> 2    35           20000         0
#> 3    26           43000         0
#> 4    27           57000         0
#> 5    19           76000         0
#> 6    27           58000         0
#> # … with 394 more rows
…
