Chapter 34 Comparing regression models | A Machine Learning Compilation
…
policies <- read_csv(file.path(data_raw_dir, "Rates.csv"))
#> Parsed with column specification:
#> cols(
#>   Gender = col_character(),
#>   State = col_character(),
#>   State.Rate = col_double(),
#>   Height = col_double(),
#>   Weight = col_double(),
#>   BMI = col_double(),
#>   Age = col_double(),
#>   Rate = col_double()
#> )
policies
#> # A tibble: 1,942 x 8
#>   Gender State State.Rate Height Weight   BMI   Age   Rate
#>   <chr>  <chr>      <dbl>  <dbl>  <dbl> <dbl> <dbl>  <dbl>
#> 1 Male   MA        0.100     184   67.8  20.0    77 0.332 
#> 2 Male   VA        0.142     163   89.4  33.6    82 0.869 
#> 3 Male   NY        0.0908    170   81.2  28.1    31 0.01  
#> 4 Male   TN        0.120     175   99.7  32.6    39 0.0215
#> 5 Male   FL        0.110     184   72.1  21.3    68 0.150 
#> 6 Male   WA        0.163     166   98.4  35.7    64 0.211 
#> # … with 1,936 more rows
…
