Chapter 33 Comparison of six Linear Regression algorithms | A Machine Learning Compilation
…
tibble::as_tibble(BostonHousing)
#> # A tibble: 506 x 14
#>      crim    zn indus chas    nox    rm   age   dis   rad   tax ptratio     b
#>     <dbl> <dbl> <dbl> <fct> <dbl> <dbl> <dbl> <dbl> <dbl> <dbl>   <dbl> <dbl>
#> 1 0.00632    18  2.31 0     0.538  6.58  65.2  4.09     1   296    15.3  397.
#> 2 0.0273      0  7.07 0     0.469  6.42  78.9  4.97     2   242    17.8  397.
#> 3 0.0273      0  7.07 0     0.469  7.18  61.1  4.97     2   242    17.8  393.
#> 4 0.0324      0  2.18 0     0.458  7.00  45.8  6.06     3   222    18.7  395.
#> 5 0.0690      0  2.18 0     0.458  7.15  54.2  6.06     3   222    18.7  397.
#> 6 0.0298      0  2.18 0     0.458  6.43  58.7  6.06     3   222    18.7  394.
#> # … with 500 more rows, and 2 more variables: lstat <dbl>, medv <dbl>
…
