Chapter 7 Data Visualization for ML models | A Machine Learning Compilation
…
Here we take advantage of that behavior, creating a new single-value variable for the name of each of our models. Ggplot will properly construct the relevant guide if we call scale_color_manual() and scale_fill_manual(). Remember that we have to call two scale functions because we have two mappings. The result is a single plot containing not just our three smoothers, but also an appropriate legend to guide the reader.

These model-fitting features make ggplot very useful for exploratory work, and make it straightforward to generate and compare model-based trends and other summaries as part of the process of descriptive data visualization. The various stat_ functions are a flexible way to add summary estimates of various kinds to plots. But we will also want more than this, including presenting results from models we fit ourselves.

7.3 Look inside model objects

Covering the details of fitting statistical models in R is beyond the scope of this book. For a comprehensive, modern introduction to that topic you should work your way through (Gelman & Hill, 2018). (Harrell, 2016) is also very good on the many practical connections between modeling and graphing data. Similarly, (Gelman, 2004) provides a detailed discussion of the use of graphics as a tool in model-checking and validation. Here we will discuss some ways to take the models that you fit and extract information that is easy to work with in ggplot. Our goal, as always, is to get from however the object is stored to a tidy table of numbers that we can plot. Most classes of statistical model in R will contain the information we need, or will have a special set of functions, or methods, designed to extract it.

We can start by learning a little more about how the output of models is stored in R. Remember, we are always working with objects, and objects have an internal structure consisting of named pieces. Sometimes these are single numbers, sometimes vectors, and sometimes lists of things like vectors, matrices, or formulas.

We have been working extensively with tibbles and data frames. These store tables of data with named columns, perhaps consisting of different classes of variable, such as integers, characters, dates, or factors. Model objects are a little more complicated again.

gapminder
#> # A tibble: 1,704 x 6
#>   country     continent  year lifeExp      pop gdpPercap
#>   <fct>       <fct>     <int>   <dbl>    <int>     <dbl>
#> 1 Afghanistan Asia       1952    28.8  8425333      779.
#> 2 Afghanistan Asia       1957    30.3  9240934      821.
#> 3 Afghanistan Asia       1962    32.0 10267083      853.
#> 4 Afghanistan Asia       1967    34.0 11537966      836.
#> 5 Afghanistan Asia       1972    36.1 13079460      740.
#> 6 Afghanistan Asia       1977    38.4 14880372      786.
#> # … with 1,698 more rows
…
7.6 Tidy model objects with broom

The predict method is very useful, but there are a lot of other things we might want to do with our model output. We will use David Robinson’s broom package to help us out. It is a library of functions that help us get from the model results that R generates to numbers that we can plot. It will take model objects and turn pieces of them into data frames that you can use easily with ggplot.

library(broom)

Broom takes ggplot’s approach to tidy data and extends it to the model objects that R produces. Its methods can tidily extract three kinds of information. First, we can see component-level information about aspects of the model itself, such as coefficients and t-statistics. Second, we can obtain observation-level information about the model’s connection to the underlying data. This includes the fitted values and residuals for each observation in the data. And finally we can get model-level information that summarizes the fit as a whole, such as an F-statistic, the model deviance, or the r-squared. There is a broom function for each of these tasks.

7.6.1 Get component-level statistics with tidy()

The tidy() function takes a model object and returns a data frame of component-level information. We can work with this to make plots in a familiar way, and much more easily than fishing inside the model object to extract the various terms. Here is an example, using the default results as just returned. For a more convenient display of the results, we will pipe the object we create with tidy() through a function that rounds the numeric columns of the data frame to two decimal places. This doesn’t change anything about the object itself, of course.

out_comp <- tidy(out)
out_comp %>% round_df()
#> # A tibble: 7 x 5
#>   term              estimate std.error statistic p.value
#>   <chr>                <dbl>     <dbl>     <dbl>   <dbl>
#> 1 (Intercept)          47.8      0.34     141.         0
#> 2 gdpPercap             0        0         19.2        0
#> 3 pop                   0        0          3.33       0
#> 4 continentAmericas    13.5      0.6       22.5        0
#> 5 continentAsia         8.19     0.570     14.3        0
#> 6 continentEurope      17.5      0.62      28.0        0
#> # … with 1 more row
…
We can extend and clean up this plot in a variety of ways. For example, we can tell tidy() to calculate confidence intervals for the estimates, using R’s confint() function.

out_conf <- tidy(out, conf.int = TRUE)
out_conf %>% round_df()
#> # A tibble: 7 x 7
#>   term              estimate std.error statistic p.value conf.low conf.high
#>   <chr>                <dbl>     <dbl>     <dbl>   <dbl>    <dbl>     <dbl>
#> 1 (Intercept)          47.8      0.34     141.         0    47.2      48.5 
#> 2 gdpPercap             0        0         19.2        0     0         0   
#> 3 pop                   0        0          3.33       0     0         0   
#> 4 continentAmericas    13.5      0.6       22.5        0    12.3      14.6 
#> 5 continentAsia         8.19     0.570     14.3        0     7.07      9.31
#> 6 continentEurope      17.5      0.62      28.0        0    16.2      18.7 
#> # … with 1 more row
…
With dplyr and broom we can do this for every continent-year slice of the data in a compact and tidy way. We start with our table of data, and then (%>%) group the countries by continent and year using the group_by() function. We introduced this grouping operation in Chapter 4. Our data is reorganized first by continent, and within continent by year. Here we will take one further step and nest the data that make up each group:

out_le <- gapminder %>%
    group_by(continent, year) %>%
    nest()

out_le
#> # A tibble: 60 x 3
#> # Groups:   continent, year [60]
#>   continent  year data             
#>   <fct>     <int> <list>           
#> 1 Asia       1952 <tibble [33 × 4]>
#> 2 Asia       1957 <tibble [33 × 4]>
#> 3 Asia       1962 <tibble [33 × 4]>
#> 4 Asia       1967 <tibble [33 × 4]>
#> 5 Asia       1972 <tibble [33 × 4]>
#> 6 Asia       1977 <tibble [33 × 4]>
#> # … with 54 more rows

Think of what nest() does as a more intensive version what group_by() does. The resulting object is has the tabular form we expect (it is a tibble) but it looks a little unusual. The first two columns are the familiar continent and year. But we now also have a new column, data, that contains a small table of data corresponding to each continent-year group. This is a list-column, something we have not seen before. It turns out to be very useful for bundling together complex objects (structured, in this case, as a list of tibbles, each being a 33x4 table of data) within the rows of our data (which remains tabular). Our “Europe 1977” fit is in there. We can look at it, if we like, by filtering the data and then unnesting the list column.

out_le %>% filter(continent == "Europe" & year == 1977) %>% unnest()
#> Warning: `cols` is now required.
#> Please use `cols = c(data)`
#> # A tibble: 30 x 6
#> # Groups:   continent, year [5]
#>   continent  year country                lifeExp     pop gdpPercap
#>   <fct>     <int> <fct>                    <dbl>   <int>     <dbl>
#> 1 Europe     1977 Albania                   68.9 2509048     3533.
#> 2 Europe     1977 Austria                   72.2 7568430    19749.
#> 3 Europe     1977 Belgium                   72.8 9821800    19118.
#> 4 Europe     1977 Bosnia and Herzegovina    69.9 4086000     3528.
#> 5 Europe     1977 Bulgaria                  70.8 8797022     7612.
#> 6 Europe     1977 Croatia                   70.6 4318673    11305.
#> # … with 24 more rows
List-columns are useful because we can act on them in a compact and tidy way. In particular, we can pass functions along to each row of the list-column and make something happen. For example, a moment ago we ran a regression of life expectancy and logged GDP for European countries in 1977. We can do that for every continent-year combination in the data. We first create a convenience function called fit_ols() that takes a single argument, df (for data frame) and that fits the linear model we are interested in. Then we map that function to each of our list-column rows in turn. Recall from Chapter 4 that mutate creates new variables or columns on the fly within a pipeline.

The map action is an important idea in functional programming. If you have written code in other, more imperative languages you can think of it as a compact alternative to writing for … next loops. You can of course write loops like this in R. Computationally they are often not any less efficient than their functional alternatives. But mapping functions to arrays is more easily integrated into a sequence of data transformations.

fit_ols <- function(df) {
    lm(lifeExp ~ log(gdpPercap), data = df)
}

out_le <- gapminder %>%
    group_by(continent, year) %>%
    nest() %>% 
    mutate(model = map(data, fit_ols)) 

out_le
#> # A tibble: 60 x 4
#> # Groups:   continent, year [60]
#>   continent  year data              model 
#>   <fct>     <int> <list>            <list>
#> 1 Asia       1952 <tibble [33 × 4]> <lm>  
#> 2 Asia       1957 <tibble [33 × 4]> <lm>  
#> 3 Asia       1962 <tibble [33 × 4]> <lm>  
#> 4 Asia       1967 <tibble [33 × 4]> <lm>  
#> 5 Asia       1972 <tibble [33 × 4]> <lm>  
#> 6 Asia       1977 <tibble [33 × 4]> <lm>  
#> # … with 54 more rows
…
fit_ols <- function(df) {
    lm(lifeExp ~ log(gdpPercap), data = df)
}

out_tidy <- gapminder %>%
    group_by(continent, year) %>%
    nest() %>% 
    mutate(model = map(data, fit_ols),
           tidied = map(model, tidy)) %>%
    # unnest(tidied, .drop = TRUE) %>%     # .drop is deprecated
    unnest(tidied) %>%
    filter(term %nin% "(Intercept)" &
           continent %nin% "Oceania") %>% 
    print()
#> # A tibble: 48 x 9
#> # Groups:   continent, year [49]
#>   continent  year data      model  term     estimate std.error statistic p.value
#>   <fct>     <int> <list>    <list> <chr>       <dbl>     <dbl>     <dbl>   <dbl>
#> 1 Asia       1952 <tibble … <lm>   log(gdp…     4.16      1.25      3.33 2.28e-3
#> 2 Asia       1957 <tibble … <lm>   log(gdp…     4.17      1.28      3.26 2.71e-3
#> 3 Asia       1962 <tibble … <lm>   log(gdp…     4.59      1.24      3.72 7.94e-4
#> 4 Asia       1967 <tibble … <lm>   log(gdp…     4.50      1.15      3.90 4.77e-4
#> 5 Asia       1972 <tibble … <lm>   log(gdp…     4.44      1.01      4.41 1.16e-4
#> 6 Asia       1977 <tibble … <lm>   log(gdp…     4.87      1.03      4.75 4.42e-5
#> # … with 42 more rows

# sample with replacement
out_tidy %>% sample_n(5, replace = TRUE)    # replace to prevent error 
#> # A tibble: 240 x 9
#> # Groups:   continent, year [49]
#>   continent  year data       model term     estimate std.error statistic p.value
#>   <fct>     <int> <list>     <lis> <chr>       <dbl>     <dbl>     <dbl>   <dbl>
#> 1 Africa     1952 <tibble [… <lm>  log(gdp…     2.34     0.971      2.41  0.0199
#> 2 Africa     1952 <tibble [… <lm>  log(gdp…     2.34     0.971      2.41  0.0199
#> 3 Africa     1952 <tibble [… <lm>  log(gdp…     2.34     0.971      2.41  0.0199
#> 4 Africa     1952 <tibble [… <lm>  log(gdp…     2.34     0.971      2.41  0.0199
#> 5 Africa     1952 <tibble [… <lm>  log(gdp…     2.34     0.971      2.41  0.0199
#> 6 Africa     1957 <tibble [… <lm>  log(gdp…     2.69     1.06       2.55  0.0140
#> # … with 234 more rows
…
The margins library comes with several plot methods of its own. If you wish, at this point you can just try plot(bo_m) to see a plot of the average marginal effects, produced with the general look of a Stata graphic. Other plot methods in the margins library include cplot(), which visualizes marginal effects conditional on a second variable, and image(), which shows predictions or marginal effects as a filled heatmap or contour plot.

Alternatively, we can take results from margins() and plot them ourselves. To clean up the summary a little a little, we convert it to a tibble, then use prefix_strip() and prefix_replace() to tidy the labels. We want to strip the polviews_m and sex prefixes, and (to avoid ambiguity about “Other”), adjust the race prefix.

bo_gg <- as_tibble(summary(bo_m))
prefixes <- c("polviews_m", "sex")
bo_gg$factor <- prefix_strip(bo_gg$factor, prefixes)
bo_gg$factor <- prefix_replace(bo_gg$factor, "race", "Race: ")

bo_gg %>% select(factor, AME, lower, upper) 
#> # A tibble: 9 x 4
#>   factor                    AME  lower  upper
#>   <chr>                   <dbl>  <dbl>  <dbl>
#> 1 Conservative           -0.412 -0.467 -0.356
#> 2 Extremely Conservative -0.454 -0.536 -0.371
#> 3 Extremely Liberal       0.268  0.210  0.326
#> 4 Liberal                 0.277  0.232  0.322
#> 5 Slightly Conservative  -0.266 -0.330 -0.201
#> 6 Slightly Liberal        0.193  0.134  0.253
#> # … with 3 more rows
…
out_grp <- gss_wt %>%
    filter(year %in% seq(1976, 2016, by = 4)) %>%
    group_by(year, race, degree) %>%
    summarize(prop = survey_mean(na.rm = TRUE))
#> Warning: Factor `degree` contains implicit NA, consider using
#> `forcats::fct_explicit_na`
#> Warning: Column `year` has different attributes on LHS and RHS of join

out_grp
#> # A tibble: 162 x 5
#>    year race  degree            prop  prop_se
#>   <dbl> <fct> <fct>            <dbl>    <dbl>
#> 1  1976 White Lt High School  0.328   0.0160 
#> 2  1976 White High School     0.518   0.0162 
#> 3  1976 White Junior College  0.0129  0.00298
#> 4  1976 White Bachelor        0.101   0.00960
#> 5  1976 White Graduate        0.0393  0.00644
#> 6  1976 White <NA>           NA      NA      
#> # … with 156 more rows
The results returned in out_grp include standard errors. We can also ask survey_mean() to calculate confidence intervals for us, if we wish.

Grouping with group_by() lets us calculate counts or means for the innermost variable, grouped by the next variable “up” or “out”, in this case, degree by race, such that the proportions for degree will sum to one for each group in race, and this will be done separately for each value of year. If we want the marginal frequencies, such that the values for all combinations of race and degree sum to one within each year, we first have to interact the variables we are cross-classifying. Then we group by the new interacted variable and do the calculation as before:

out_mrg <- gss_wt %>%
    filter(year %in% seq(1976, 2016, by = 4)) %>%
    mutate(racedeg = interaction(race, degree)) %>%
    group_by(year, racedeg) %>%
    summarize(prop = survey_mean(na.rm = TRUE))
#> Warning: Factor `racedeg` contains implicit NA, consider using
#> `forcats::fct_explicit_na`
#> Warning: Column `year` has different attributes on LHS and RHS of join

out_mrg
#> # A tibble: 155 x 4
#>    year racedeg                 prop prop_se
#>   <dbl> <fct>                  <dbl>   <dbl>
#> 1  1976 White.Lt High School 0.298   0.0146 
#> 2  1976 Black.Lt High School 0.0471  0.00840
#> 3  1976 Other.Lt High School 0.00195 0.00138
#> 4  1976 White.High School    0.471   0.0160 
#> 5  1976 Black.High School    0.0283  0.00594
#> 6  1976 Other.High School    0.00325 0.00166
#> # … with 149 more rows

This gives us the numbers that we want and returns them in a tidy data frame. The interaction() function produces variable labels that are a compound of the two variables we interacted, with each combination of categories separated by a period, (such as White.Graduate. However, perhaps we would like to see these categories as two separate columns, one for race and one for education, as before. Because the variable labels are organized in a predictable way, we can use one of the convenient functions in the tidyverse’s tidyr library to separate the single variable into two columns while correctly preserving the row values. Appropriately, this function is called separate().

out_mrg <- gss_wt %>%
    filter(year %in% seq(1976, 2016, by = 4)) %>%
    mutate(racedeg = interaction(race, degree)) %>%
    group_by(year, racedeg) %>%
    summarize(prop = survey_mean(na.rm = TRUE)) %>%
    separate(racedeg, sep = "\\.", into = c("race", "degree"))
#> Warning: Factor `racedeg` contains implicit NA, consider using
#> `forcats::fct_explicit_na`
#> Warning: Column `year` has different attributes on LHS and RHS of join

out_mrg
#> # A tibble: 155 x 5
#>    year race  degree            prop prop_se
#>   <dbl> <chr> <chr>            <dbl>   <dbl>
#> 1  1976 White Lt High School 0.298   0.0146 
#> 2  1976 Black Lt High School 0.0471  0.00840
#> 3  1976 Other Lt High School 0.00195 0.00138
#> 4  1976 White High School    0.471   0.0160 
#> 5  1976 Black High School    0.0283  0.00594
#> 6  1976 Other High School    0.00325 0.00166
#> # … with 149 more rows
…
