Chapter 22 Detect mines vs rocks with Random Forest | A Machine Learning Compilation
…
tibble::as_tibble(Sonar)
#> # A tibble: 208 x 61
#>       V1     V2     V3     V4     V5     V6    V7    V8     V9   V10    V11
#>    <dbl>  <dbl>  <dbl>  <dbl>  <dbl>  <dbl> <dbl> <dbl>  <dbl> <dbl>  <dbl>
#> 1 0.02   0.0371 0.0428 0.0207 0.0954 0.0986 0.154 0.160 0.311  0.211 0.161 
#> 2 0.0453 0.0523 0.0843 0.0689 0.118  0.258  0.216 0.348 0.334  0.287 0.492 
#> 3 0.0262 0.0582 0.110  0.108  0.0974 0.228  0.243 0.377 0.560  0.619 0.633 
#> 4 0.01   0.0171 0.0623 0.0205 0.0205 0.0368 0.110 0.128 0.0598 0.126 0.0881
#> 5 0.0762 0.0666 0.0481 0.0394 0.059  0.0649 0.121 0.247 0.356  0.446 0.415 
#> 6 0.0286 0.0453 0.0277 0.0174 0.0384 0.099  0.120 0.183 0.210  0.304 0.299 
#> # … with 202 more rows, and 50 more variables: V12 <dbl>, V13 <dbl>, V14 <dbl>,
#> #   V15 <dbl>, V16 <dbl>, V17 <dbl>, V18 <dbl>, V19 <dbl>, V20 <dbl>,
#> #   V21 <dbl>, V22 <dbl>, V23 <dbl>, V24 <dbl>, V25 <dbl>, V26 <dbl>,
#> #   V27 <dbl>, V28 <dbl>, V29 <dbl>, V30 <dbl>, V31 <dbl>, V32 <dbl>,
#> #   V33 <dbl>, V34 <dbl>, V35 <dbl>, V36 <dbl>, V37 <dbl>, V38 <dbl>,
#> #   V39 <dbl>, V40 <dbl>, V41 <dbl>, V42 <dbl>, V43 <dbl>, V44 <dbl>,
#> #   V45 <dbl>, V46 <dbl>, V47 <dbl>, V48 <dbl>, V49 <dbl>, V50 <dbl>,
#> #   V51 <dbl>, V52 <dbl>, V53 <dbl>, V54 <dbl>, V55 <dbl>, V56 <dbl>,
#> #   V57 <dbl>, V58 <dbl>, V59 <dbl>, V60 <dbl>, Class <fct>
…
