Chapter 9 Employee Attrition using Feature Importance | A Machine Learning Compilation
…
# Predict on hold-out set, test_h2o
pred_h2o <- h2o.predict(object = automl_leader, newdata = test_h2o)

9.5 Performance

Now we can evaluate our leader model. We’ll reformat the test set an add the predictions as column so we have the actual and prediction columns side-by-side.

# Prep for performance assessment
test_performance <- test_h2o %>%
    tibble::as_tibble() %>%
    select(Attrition) %>%
    add_column(pred = as.vector(pred_h2o$predict)) %>%
    mutate_if(is.character, as.factor)
test_performance
#> # A tibble: 211 x 2
#>   Attrition pred 
#>   <fct>     <fct>
#> 1 No        No   
#> 2 No        No   
#> 3 Yes       Yes  
#> 4 No        No   
#> 5 No        No   
#> 6 No        No   
#> # … with 205 more rows
…
    pred <- h2o.predict(x, as.h2o(newdata))
    
    # return probs
    return(as.data.frame(pred[,-1]))
    
}

Run this next script to show you what the output looks like and to test our predict_model function. See how it’s the probabilities by classification. It must be in this form for model_type = “classification”.

# Test our predict_model() function
predict_model(x = automl_leader, newdata = as.data.frame(test_h2o[,-1]), type = 'raw') %>%
    tibble::as_tibble()
#> # A tibble: 211 x 2
#>       No    Yes
#>    <dbl>  <dbl>
#> 1 0.843  0.157 
#> 2 0.955  0.0447
#> 3 0.0514 0.949 
#> 4 0.971  0.0289
#> 5 0.891  0.109 
#> 6 0.962  0.0378
#> # … with 205 more rows
…
Training Time

Job Role

Over Time

We’ll subset this data and visualize to detect trends.

# Focus on critical features of attrition
attrition_critical_features <- hr_data %>%
    tibble::as_tibble() %>%
    select(Attrition, TrainingTimesLastYear, JobRole, OverTime) %>%
    rowid_to_column(var = "Case")
attrition_critical_features
#> # A tibble: 1,470 x 5
#>    Case Attrition TrainingTimesLastYear JobRole               OverTime
#>   <int> <fct>                     <dbl> <fct>                 <fct>   
#> 1     1 Yes                           0 Sales Executive       Yes     
#> 2     2 No                            3 Research Scientist    No      
#> 3     3 Yes                           3 Laboratory Technician Yes     
#> 4     4 No                            3 Research Scientist    Yes     
#> 5     5 No                            3 Laboratory Technician No      
#> 6     6 No                            2 Laboratory Technician No      
#> # … with 1,464 more rows
…
attrition_critical_features %>%
    group_by(JobRole, Attrition) %>% 
    summarize(total = n())
#> # A tibble: 18 x 3
#> # Groups:   JobRole [9]
#>   JobRole                   Attrition total
#>   <fct>                     <fct>     <int>
#> 1 Healthcare Representative No          122
#> 2 Healthcare Representative Yes           9
#> 3 Human Resources           No           40
#> 4 Human Resources           Yes          12
#> 5 Laboratory Technician     No          197
#> 6 Laboratory Technician     Yes          62
#> # … with 12 more rows

attrition_critical_features %>%
    group_by(JobRole, Attrition) %>% 
    summarize(total = n()) %>% 
    spread(key = Attrition, value = total) %>% 
    mutate(pct_attrition = Yes / (Yes + No))
#> # A tibble: 9 x 4
#> # Groups:   JobRole [9]
#>   JobRole                      No   Yes pct_attrition
#>   <fct>                     <int> <int>         <dbl>
#> 1 Healthcare Representative   122     9        0.0687
#> 2 Human Resources              40    12        0.231 
#> 3 Laboratory Technician       197    62        0.239 
#> 4 Manager                      97     5        0.0490
#> 5 Manufacturing Director      135    10        0.0690
#> 6 Research Director            78     2        0.025 
#> # … with 3 more rows
…
