Chapter 14 Imputting missing values with Random Forest | A Machine Learning Compilation
…
fluH7N9_china_2013 <- as.tibble(fluH7N9_china_2013)
#> Warning: `as.tibble()` is deprecated as of tibble 2.0.0.
#> Please use `as_tibble()` instead.
#> The signature and semantics have changed, see `?as_tibble`.
#> This warning is displayed once every 8 hours.
#> Call `lifecycle::last_warnings()` to see where this warning was generated.
fluH7N9_china_2013_gather <- as.tibble(fluH7N9_china_2013_gather)
print(fluH7N9_china_2013)
#> # A tibble: 136 x 8
#>   case_id date_of_onset date_of_hospita… date_of_outcome outcome gender age  
#>   <fct>   <date>        <date>           <date>          <fct>   <fct>  <fct>
#> 1 1       2013-02-19    NA               2013-03-04      Death   m      87   
#> 2 2       2013-02-27    2013-03-03       2013-03-10      Death   m      27   
#> 3 3       2013-03-09    2013-03-19       2013-04-09      Death   f      35   
#> 4 4       2013-03-19    2013-03-27       NA              <NA>    f      45   
#> 5 5       2013-03-19    2013-03-30       2013-05-15      Recover f      48   
#> 6 6       2013-03-21    2013-03-28       2013-04-26      Death   f      32   
#> # … with 130 more rows, and 1 more variable: province <fct>

I’m also adding a third gender level for unknown gender

levels(fluH7N9_china_2013_gather$gender) <- 
  c(levels(fluH7N9_china_2013_gather$gender), "unknown")
fluH7N9_china_2013_gather$gender[is.na(fluH7N9_china_2013_gather$gender)] <- "unknown"
print(fluH7N9_china_2013_gather)
#> # A tibble: 408 x 7
#>   case_id outcome gender   age province Group         Date      
#>   <chr>   <fct>   <fct>  <dbl> <fct>    <fct>         <date>    
#> 1 case_1  Death   m         58 Shanghai date of onset 2013-02-19
#> 2 case_2  Death   m          7 Shanghai date of onset 2013-02-27
#> 3 case_3  Death   f         11 Other    date of onset 2013-03-09
#> 4 case_4  <NA>    f         18 Jiangsu  date of onset 2013-03-19
#> 5 case_5  Recover f         20 Jiangsu  date of onset 2013-03-19
#> 6 case_6  Death   f          9 Jiangsu  date of onset 2013-03-21
#> # … with 402 more rows
…
Finally, we have a nested dataframe of 5 rows or cases, one per imputting strategy with its corresponding models and prediction results.

14.7 Comparing accuracy of models

To compare how the different imputations did, I am plotting the confusion matrices:

val_data_model_unnest <- val_data_model %>%
  unnest(confusion_matrix_tbl) %>%
  print()
#> # A tibble: 20 x 11
#> # Groups:   .imp [5]
#>   .imp  data  val_train_data val_test_data model predict predict_prob
#>   <fct> <lis> <list>         <list>        <lis> <list>  <list>      
#> 1 1     <tib… <tibble [56 ×… <tibble [23 … <tra… <df[,1… <df[,3] [23…
#> 2 1     <tib… <tibble [56 ×… <tibble [23 … <tra… <df[,1… <df[,3] [23…
#> 3 1     <tib… <tibble [56 ×… <tibble [23 … <tra… <df[,1… <df[,3] [23…
#> 4 1     <tib… <tibble [56 ×… <tibble [23 … <tra… <df[,1… <df[,3] [23…
#> 5 2     <tib… <tibble [56 ×… <tibble [23 … <tra… <df[,1… <df[,3] [23…
#> 6 2     <tib… <tibble [56 ×… <tibble [23 … <tra… <df[,1… <df[,3] [23…
#> # … with 14 more rows, and 4 more variables: confusion_matrix <list>,
#> #   Prediction <chr>, Reference <chr>, n <int>
…
and the prediction probabilities for correct and wrong predictions:

val_data_model_gather <- val_data_model %>%
  unnest(predict_prob) %>%
  gather(x, y, prediction.Death:prediction.Recover) %>%
  print()
#> # A tibble: 230 x 11
#> # Groups:   .imp [5]
#>   .imp  data  val_train_data val_test_data model predict outcome
#>   <fct> <lis> <list>         <list>        <lis> <list>  <fct>  
#> 1 1     <tib… <tibble [56 ×… <tibble [23 … <tra… <df[,1… Death  
#> 2 1     <tib… <tibble [56 ×… <tibble [23 … <tra… <df[,1… Recover
#> 3 1     <tib… <tibble [56 ×… <tibble [23 … <tra… <df[,1… Death  
#> 4 1     <tib… <tibble [56 ×… <tibble [23 … <tra… <df[,1… Death  
#> 5 1     <tib… <tibble [56 ×… <tibble [23 … <tra… <df[,1… Recover
#> 6 1     <tib… <tibble [56 ×… <tibble [23 … <tra… <df[,1… Recover
#> # … with 224 more rows, and 4 more variables: confusion_matrix <list>,
#> #   confusion_matrix_tbl <list>, x <chr>, y <dbl>
…
