Chapter 16 Introduction to algorithms for Classification | A Machine Learning Compilation
…
dplyr::glimpse(PimaIndiansDiabetes)
#> Rows: 768
#> Columns: 9
#> $ pregnant <dbl> 6, 1, 8, 1, 0, 5, 3, 10, 2, 8, 4, 10, 10, 1, 5, 7, 0, 7, 1, …
#> $ glucose  <dbl> 148, 85, 183, 89, 137, 116, 78, 115, 197, 125, 110, 168, 139…
#> $ pressure <dbl> 72, 66, 64, 66, 40, 74, 50, 0, 70, 96, 92, 74, 80, 60, 72, 0…
#> $ triceps  <dbl> 35, 29, 0, 23, 35, 0, 32, 0, 45, 0, 0, 0, 0, 23, 19, 0, 47, …
#> $ insulin  <dbl> 0, 0, 0, 94, 168, 0, 88, 0, 543, 0, 0, 0, 0, 846, 175, 0, 23…
#> $ mass     <dbl> 33.6, 26.6, 23.3, 28.1, 43.1, 25.6, 31.0, 35.3, 30.5, 0.0, 3…
#> $ pedigree <dbl> 0.627, 0.351, 0.672, 0.167, 2.288, 0.201, 0.248, 0.134, 0.15…
#> $ age      <dbl> 50, 31, 32, 21, 33, 30, 26, 29, 53, 54, 30, 34, 57, 59, 51, …
#> $ diabetes <fct> pos, neg, pos, neg, pos, neg, pos, neg, pos, pos, neg, pos, …

tibble::as_tibble(PimaIndiansDiabetes)
#> # A tibble: 768 x 9
#>   pregnant glucose pressure triceps insulin  mass pedigree   age diabetes
#>      <dbl>   <dbl>    <dbl>   <dbl>   <dbl> <dbl>    <dbl> <dbl> <fct>   
#> 1        6     148       72      35       0  33.6    0.627    50 pos     
#> 2        1      85       66      29       0  26.6    0.351    31 neg     
#> 3        8     183       64       0       0  23.3    0.672    32 pos     
#> 4        1      89       66      23      94  28.1    0.167    21 neg     
#> 5        0     137       40      35     168  43.1    2.29     33 pos     
#> 6        5     116       74       0       0  25.6    0.201    30 neg     
#> # … with 762 more rows
…
