Chapter 31 Linear Regression with ISLR | A Machine Learning Compilation
…
library(readr)

advertising <- read_csv(file.path(data_raw_dir, "Advertising.csv"))
#> Warning: Missing column names filled in: 'X1' [1]
#> Parsed with column specification:
#> cols(
#>   X1 = col_double(),
#>   TV = col_double(),
#>   radio = col_double(),
#>   newspaper = col_double(),
#>   sales = col_double()
#> )
advertising
#> # A tibble: 200 x 5
#>      X1    TV radio newspaper sales
#>   <dbl> <dbl> <dbl>     <dbl> <dbl>
#> 1     1 230.   37.8      69.2  22.1
#> 2     2  44.5  39.3      45.1  10.4
#> 3     3  17.2  45.9      69.3   9.3
#> 4     4 152.   41.3      58.5  18.5
#> 5     5 181.   10.8      58.4  12.9
#> 6     6   8.7  48.9      75     7.2
#> # … with 194 more rows
…
