C QQ and PP Plots | A Machine Learning Book
…
Plotting these as lines shows the variability in shapes we can expect when sampling from the theoretical normal distribution:

gb <- nboot(father.son$fheight, 50)
tibble::as_tibble(gb)
#> # A tibble: 53,900 x 3
#>       x        p   sim
#>   <dbl>    <dbl> <int>
#> 1  59.8 0.000464     1
#> 2  59.9 0.00139      1
#> 3  59.9 0.00232      1
#> 4  60.8 0.00325      1
#> 5  60.8 0.00417      1
#> 6  60.9 0.00510      1
#> # … with 53,894 more rows
…
