Chapter 6 Sensitivity analysis for a neural network | A Machine Learning Compilation
…
#prep data and create neural network
rand.vars <- data.frame(rand.vars)
resp <- apply(cbind(y1,y2),2, function(y) (y-min(y))/(max(y)-min(y)))
resp <- data.frame(resp)
names(resp)<-c('Y1','Y2')

tibble::as_tibble(rand.vars)
#> # A tibble: 10,000 x 8
#>        X1     X2     X3     X4     X5    X6    X7     X8
#>     <dbl>  <dbl>  <dbl>  <dbl>  <dbl> <dbl> <dbl>  <dbl>
#> 1  1.61    2.13   2.13   3.97  -1.34   2.00  3.11 -2.55 
#> 2 -1.25    3.07  -0.325  1.61  -0.484  2.28  2.98 -1.71 
#> 3 -3.17   -1.29  -1.77  -1.66  -0.549 -3.19  1.07  1.81 
#> 4 -2.39    3.28  -3.42  -0.160 -1.52   2.67  7.05 -1.14 
#> 5 -1.55   -0.181 -1.14   2.27  -1.68  -1.67  3.08  0.334
#> 6  0.0690 -1.54  -2.98   2.84   1.42   1.31  1.82  2.07 
#> # … with 9,994 more rows

tibble::as_tibble(resp)
#> # A tibble: 10,000 x 2
#>      Y1    Y2
#>   <dbl> <dbl>
#> 1 0.461 0.500
#> 2 0.416 0.509
#> 3 0.534 0.675
#> 4 0.548 0.619
#> 5 0.519 0.659
#> 6 0.389 0.622
#> # … with 9,994 more rows
…
