Chapter 38 Temperature modeling using nested dataframes | A Machine Learning Compilation
…
38.2.1 Let’s get the data into shape

Using the readr package

temperature_wide <- 
  read_csv(file.path(data_raw_dir, "temperature.csv")) %>%
  print()
#> Parsed with column specification:
#> cols(
#>   instant = col_datetime(format = ""),
#>   temperature_a = col_double(),
#>   temperature_b = col_double(),
#>   temperature_c = col_double()
#> )
#> # A tibble: 327 x 4
#>   instant             temperature_a temperature_b temperature_c
#>   <dttm>                      <dbl>         <dbl>         <dbl>
#> 1 2015-11-13 06:10:19          116.          91.7          84.2
#> 2 2015-11-13 06:10:23          116.          91.7          84.2
#> 3 2015-11-13 06:10:27          116.          91.6          84.2
#> 4 2015-11-13 06:10:31          116.          91.7          84.2
#> 5 2015-11-13 06:10:36          116.          91.7          84.2
#> 6 2015-11-13 06:10:41          116.          91.6          84.2
#> # … with 321 more rows

38.2.2 Is temperature_wide “tidy”?

#> # A tibble: 327 x 4
#>   instant             temperature_a temperature_b temperature_c
#>   <dttm>                      <dbl>         <dbl>         <dbl>
#> 1 2015-11-13 06:10:19          116.          91.7          84.2
#> 2 2015-11-13 06:10:23          116.          91.7          84.2
#> 3 2015-11-13 06:10:27          116.          91.6          84.2
#> 4 2015-11-13 06:10:31          116.          91.7          84.2
#> 5 2015-11-13 06:10:36          116.          91.7          84.2
#> 6 2015-11-13 06:10:41          116.          91.6          84.2
#> # … with 321 more rows
…
Each cell is a value

(http://www.jstatsoft.org/v59/i10/paper)

My personal observation is that “tidy” can depend on the context, on what you want to do with the data.

38.2.4 Let’s get this into a tidy form

temperature_tall <-
  temperature_wide %>%
  gather(key = "id_sensor", value = "temperature", starts_with("temp")) %>%
  mutate(id_sensor = str_replace(id_sensor, "temperature_", "")) %>%
  print()
#> # A tibble: 981 x 3
#>   instant             id_sensor temperature
#>   <dttm>              <chr>           <dbl>
#> 1 2015-11-13 06:10:19 a                116.
#> 2 2015-11-13 06:10:23 a                116.
#> 3 2015-11-13 06:10:27 a                116.
#> 4 2015-11-13 06:10:31 a                116.
#> 5 2015-11-13 06:10:36 a                116.
#> 6 2015-11-13 06:10:41 a                116.
#> # … with 975 more rows
…
38.4.2 Look at predictions

# apply prediction and make it tidy
tmp_pred <- 
  tmp_data %>%
  mutate(modeled = predict(tmp_model, data = .)) %>%
  select(id_sensor, delta_time, measured = delta_temperature, modeled) %>%
  gather("type", "delta_temperature", measured:modeled) %>%
  print()
#> # A tibble: 654 x 4
#> # Groups:   id_sensor [1]
#>   id_sensor delta_time type     delta_temperature
#>   <chr>          <dbl> <chr>                <dbl>
#> 1 a                  0 measured             0    
#> 2 a                  4 measured             0    
#> 3 a                  8 measured            -0.06 
#> 4 a                 12 measured            -0.06 
#> 5 a                 17 measured            -0.211
#> 6 a                 22 measured            -0.423
#> # … with 648 more rows
…
38.4.4 “Regular” data-frame (deltas)

print(delta)
#> # A tibble: 981 x 3
#> # Groups:   id_sensor [3]
#>   id_sensor delta_time delta_temperature
#>   <chr>          <dbl>             <dbl>
#> 1 a                  0             0    
#> 2 a                  4             0    
#> 3 a                  8            -0.06 
#> 4 a                 12            -0.06 
#> 5 a                 17            -0.211
#> 6 a                 22            -0.423
#> # … with 975 more rows
…
Another list-column pred for the prediction results.

38.5.4 We need to get out of the weirdness

use unnest() to get back to a regular data-frame

predict_unnested <- 
  predict_nested %>%
  unnest(data, pred) %>% 
  print()
#> Warning: unnest() has a new interface. See ?unnest for details.
#> Try `df %>% unnest(c(data, pred))`, with `mutate()` if needed
#> # A tibble: 981 x 5
#> # Groups:   id_sensor [3]
#>   id_sensor delta_time delta_temperature model    pred
#>   <chr>          <dbl>             <dbl> <list>  <dbl>
#> 1 a                  0             0     <nls>   0    
#> 2 a                  4             0     <nls>  -0.120
#> 3 a                  8            -0.06  <nls>  -0.239
#> 4 a                 12            -0.06  <nls>  -0.357
#> 5 a                 17            -0.211 <nls>  -0.503
#> 6 a                 22            -0.423 <nls>  -0.648
#> # … with 975 more rows

38.5.5 We can wrangle the predictions

get into a form that makes it easier to plot

predict_tall <- 
  predict_unnested %>%
  rename(modeled = pred, measured = delta_temperature) %>%
  gather("type", "delta_temperature", modeled, measured) %>%
  print()
#> # A tibble: 1,962 x 5
#> # Groups:   id_sensor [3]
#>   id_sensor delta_time model  type    delta_temperature
#>   <chr>          <dbl> <list> <chr>               <dbl>
#> 1 a                  0 <nls>  modeled             0    
#> 2 a                  4 <nls>  modeled            -0.120
#> 3 a                  8 <nls>  modeled            -0.239
#> 4 a                 12 <nls>  modeled            -0.357
#> 5 a                 17 <nls>  modeled            -0.503
#> 6 a                 22 <nls>  modeled            -0.648
#> # … with 1,956 more rows
…
# fn_model is receiving two inputs: one from list_model and from delta_nested
model_nested_new <-
  list_model %>%
  map_df(fn_model, delta_nested, .id = "id_model") %>%
  print()
#> # A tibble: 9 x 4
#> # Groups:   id_sensor [3]
#>   id_model             id_sensor data               model 
#>   <chr>                <chr>     <list>             <list>
#> 1 newton_cooling       a         <tibble [327 × 2]> <nls> 
#> 2 newton_cooling       b         <tibble [327 × 2]> <nls> 
#> 3 newton_cooling       c         <tibble [327 × 2]> <nls> 
#> 4 semi_infinite_simple a         <tibble [327 × 2]> <nls> 
#> 5 semi_infinite_simple b         <tibble [327 × 2]> <nls> 
#> 6 semi_infinite_simple c         <tibble [327 × 2]> <nls> 
#> # … with 3 more rows

for each element of a list of model-functions, run the inner-loop function, and row-bind the results into a data-frame

we want to discard the rows where the model failed

we also want to investigate why they failed, but that’s a different talk

38.6.4 Step 4: Use map() to identify the null models

model_nested_new <-
  list_model %>%
  map_df(fn_model, delta_nested, .id = "id_model") %>%
  mutate(is_null = map(model, is.null)) %>%
  print()
#> # A tibble: 9 x 5
#> # Groups:   id_sensor [3]
#>   id_model             id_sensor data               model  is_null  
#>   <chr>                <chr>     <list>             <list> <list>   
#> 1 newton_cooling       a         <tibble [327 × 2]> <nls>  <lgl [1]>
#> 2 newton_cooling       b         <tibble [327 × 2]> <nls>  <lgl [1]>
#> 3 newton_cooling       c         <tibble [327 × 2]> <nls>  <lgl [1]>
#> 4 semi_infinite_simple a         <tibble [327 × 2]> <nls>  <lgl [1]>
#> 5 semi_infinite_simple b         <tibble [327 × 2]> <nls>  <lgl [1]>
#> 6 semi_infinite_simple c         <tibble [327 × 2]> <nls>  <lgl [1]>
#> # … with 3 more rows

using map(model, is.null) returns a list column

to use filter(), we have to escape the weirdness

38.6.5 Step 5: map_lgl() to identify nulls and get out of the weirdness

model_nested_new <-
  list_model %>%
  map_df(fn_model, delta_nested, .id = "id_model") %>%
  mutate(is_null = map_lgl(model, is.null)) %>%
  print()
#> # A tibble: 9 x 5
#> # Groups:   id_sensor [3]
#>   id_model             id_sensor data               model  is_null
#>   <chr>                <chr>     <list>             <list> <lgl>  
#> 1 newton_cooling       a         <tibble [327 × 2]> <nls>  FALSE  
#> 2 newton_cooling       b         <tibble [327 × 2]> <nls>  FALSE  
#> 3 newton_cooling       c         <tibble [327 × 2]> <nls>  FALSE  
#> 4 semi_infinite_simple a         <tibble [327 × 2]> <nls>  FALSE  
#> 5 semi_infinite_simple b         <tibble [327 × 2]> <nls>  FALSE  
#> 6 semi_infinite_simple c         <tibble [327 × 2]> <nls>  FALSE  
#> # … with 3 more rows
…
38.6.8 unnest(), make it tall and tidy

predict_tall <-
  predict_nested %>%
  unnest(data, pred) %>% 
  rename(modeled = pred, measured = delta_temperature) %>%
  gather("type", "delta_temperature", modeled, measured) %>%
  print()
#> Warning: unnest() has a new interface. See ?unnest for details.
#> Try `df %>% unnest(c(data, pred))`, with `mutate()` if needed
#> # A tibble: 3,924 x 6
#> # Groups:   id_sensor [3]
#>   id_model       id_sensor delta_time model  type    delta_temperature
#>   <chr>          <chr>          <dbl> <list> <chr>               <dbl>
#> 1 newton_cooling a                  0 <nls>  modeled             0    
#> 2 newton_cooling a                  4 <nls>  modeled            -0.120
#> 3 newton_cooling a                  8 <nls>  modeled            -0.239
#> 4 newton_cooling a                 12 <nls>  modeled            -0.357
#> 5 newton_cooling a                 17 <nls>  modeled            -0.503
#> 6 newton_cooling a                 22 <nls>  modeled            -0.648
#> # … with 3,918 more rows
…
38.6.10 Let’s get the residuals

resid <-
  model_nested_new %>%
  mutate(resid = map(model, resid)) %>%
  unnest(data, resid) %>%
  print()
#> Warning: unnest() has a new interface. See ?unnest for details.
#> Try `df %>% unnest(c(data, resid))`, with `mutate()` if needed
#> # A tibble: 1,962 x 6
#> # Groups:   id_sensor [3]
#>   id_model       id_sensor delta_time delta_temperature model  resid
#>   <chr>          <chr>          <dbl>             <dbl> <list> <dbl>
#> 1 newton_cooling a                  0             0     <nls>  0    
#> 2 newton_cooling a                  4             0     <nls>  0.120
#> 3 newton_cooling a                  8            -0.06  <nls>  0.179
#> 4 newton_cooling a                 12            -0.06  <nls>  0.297
#> 5 newton_cooling a                 17            -0.211 <nls>  0.292
#> 6 newton_cooling a                 22            -0.423 <nls>  0.225
#> # … with 1,956 more rows
…
The tidy() function extracts statistics from a model.

# apply over model_nested_new but only three variables
model_parameters <- 
  model_nested_new %>%
  select(id_model, id_sensor, model) %>%
  mutate(tidy = map(model, tidy)) %>%
  select(-model) %>%
  unnest() %>%
  print()
#> Warning: `cols` is now required.
#> Please use `cols = c(tidy)`
#> # A tibble: 12 x 7
#> # Groups:   id_sensor [3]
#>   id_model      id_sensor term            estimate std.error statistic   p.value
#>   <chr>         <chr>     <chr>              <dbl>     <dbl>     <dbl>     <dbl>
#> 1 newton_cooli… a         delta_temperat…   -15.1     0.0526    -286.  0.       
#> 2 newton_cooli… a         tau_0             500.      4.84       103.  1.07e-250
#> 3 newton_cooli… b         delta_temperat…    -7.59    0.0676    -112.  6.38e-262
#> 4 newton_cooli… b         tau_0            1041.     16.2         64.2 9.05e-187
#> 5 newton_cooli… c         delta_temperat…    -9.87    0.704      -14.0 3.16e- 35
#> 6 newton_cooli… c         tau_0            3525.    299.          11.8 5.61e- 27
#> # … with 6 more rows
…
